{
  "currentPage": 0,
  "totalItems": 20,
  "totalPages": 2,
  "items": [
    {
      "_id": "89bf53bd-cfa3-448b-b428-accc8756d38d",
      "productName": "Product 694",
      "unitPrice": 62.58,
      "quantity": 32,
      "discount": 19.73,
      "amount": 1607.45
    },
    {
      "_id": "eb26030e-eb8b-47b1-9785-4dd598798e24",
      "productName": "Product 661",
      "unitPrice": 36.71,
      "quantity": 35,
      "discount": 5.8,
      "amount": 1210.33
    },
    {
      "_id": "4fb800d9-844f-45e3-bca3-4a2dfb8e53cb",
      "productName": "Product 428",
      "unitPrice": 93.92,
      "quantity": 28,
      "discount": 16.92,
      "amount": 2184.8
    },
    {
      "_id": "7db837a6-bd00-4bc9-9418-65b3c5a9d8d4",
      "productName": "Product 911",
      "unitPrice": 91.5,
      "quantity": 21,
      "discount": 24.85,
      "amount": 1444.01
    },
    {
      "_id": "e308c597-f0c0-47b0-9bd3-bd9a70d1e7cc",
      "productName": "Product 616",
      "unitPrice": 97.07,
      "quantity": 35,
      "discount": 23.92,
      "amount": 2584.78
    },
    {
      "_id": "c38e169f-1735-41c3-8af7-917b01b578fe",
      "productName": "Product 791",
      "unitPrice": 127.16,
      "quantity": 32,
      "discount": 21.26,
      "amount": 3204.03
    },
    {
      "_id": "912ff576-4728-4c07-9a40-78aedccc5635",
      "productName": "Product 647",
      "unitPrice": 11.19,
      "quantity": 28,
      "discount": 6.88,
      "amount": 291.76
    },
    {
      "_id": "580ec87d-debd-43ba-90ed-50ffe23be0d6",
      "productName": "Product 746",
      "unitPrice": 137.5,
      "quantity": 6,
      "discount": 7.39,
      "amount": 764.03
    },
    {
      "_id": "4eecde1d-4696-4441-845d-cfccfc9a1d17",
      "productName": "Product 168",
      "unitPrice": 108.72,
      "quantity": 42,
      "discount": 2.77,
      "amount": 4439.76
    },
    {
      "_id": "92001c03-ab14-4bf6-b056-01db80bdbd8e",
      "productName": "Product 608",
      "unitPrice": 188.02,
      "quantity": 26,
      "discount": 6.95,
      "amount": 4548.77
    }
  ]
}
