{
  "currentPage": 1,
  "totalItems": 15,
  "totalPages": 2,
  "items": [
    {
      "_id": "df0c4679-094f-4715-91f2-51cff4c09c44",
      "orderID": "O3729162",
      "orderDate": "2024-08-17",
      "customerName": "Elvis Prasley",
      "totalQuantity": 12,
      "amount": 381.3,
      "status": "Delivered"
    },
    {
      "_id": "22341700-45ce-4dd4-9dac-4045160b006c",
      "orderID": "O2984804",
      "orderDate": "2024-04-15",
      "customerName": "Angelina Jolie",
      "totalQuantity": 6,
      "amount": 309.24,
      "status": "Delivered"
    },
    {
      "_id": "3743ce75-4006-44fa-860a-bcc9781809bf",
      "orderID": "O1974472",
      "orderDate": "2024-04-05",
      "customerName": "Jhon Jones",
      "totalQuantity": 5,
      "amount": 68.16,
      "status": "Delivered"
    },
    {
      "_id": "94465685-213f-41c0-85f9-b035a3b9530d",
      "orderID": "O6515840",
      "orderDate": "2024-06-24",
      "customerName": "Brad Pitt",
      "totalQuantity": 1,
      "amount": 344.43,
      "status": "Delivered"
    },
    {
      "_id": "bfc81090-814c-4639-bc8c-1e499a3d8aa4",
      "orderID": "O8335975",
      "orderDate": "2024-03-02",
      "customerName": "Madonna",
      "totalQuantity": 15,
      "amount": 230.02,
      "status": "Delivered"
    }
  ]
}
